cluster_params={'Name': 'Abell963', 'Obsid': 903, 'Redshift': 0.206, 'nH': 1.39, 'Xspecfile': 'E:/Science/Xray/tolkienbackup/xspeclogs/unbin/witherror/xspec_tx_fit_903_unbin2013-03-01T17%3A22%3A22.log', 'num_regions': 35, 'reg_prefix': 'E:/Science/Xray/cirdanbackup/903/annulus', 'reg_suffix': '.reg'}

cluster_params={'Name': MACSJ0329-02,'Redshift': 0.45,'nH': 6.21,'Obsid': 6108,'Xspecfile': E:/Science/Xray/tolkienbackup/xspeclogs/unbin/witherror/xspec_tx_fit_6108_unbin2013-02-27T17%3A42%3A02.log,'num_regions': 5,'reg_prefix': E:/Science/Xray/cirdanbackup/6108/ann_,'reg_suffix': _6108.reg}

cluster_params={'Name': 'MACSJ0429-02','Redshift': 0.399,'nH': 5.7,'Obsid': 3271,'Xspecfile': 'E:/Science/Xray/tolkienbackup/xspeclogs/unbin/witherror/xspec_tx_fit_3271_unbin2013-02-28T02%3A39%3A01.log','num_regions': 5,'reg_prefix': 'E:/Science/Xray/cirdanbackup/3271/new/annulus_low','reg_suffix': '_3271.reg'}

cluster_params={'Name': 'MACSJ0647+70','Redshift': 0.584,'nH': 5.18,'Obsid': 3584,'Xspecfile': 'E:/Science/Xray/tolkienbackup/xspeclogs/unbin/witherror/xspec_tx_fit_3584_unbin2013-02-28T03%3A00%3A47.log','num_regions': 3,'reg_prefix': 'E:/Science/Xray/cirdanbackup/3584/new/ann_800_','reg_suffix': '_3196.reg'}

cluster_params={'Name': 'Abell611','Redshift': 0.288,'nH': 4.99,'Obsid': 3194,'Xspecfile': 'E:/Science/Xray/tolkienbackup/xspeclogs/unbin/witherror/xspec_tx_fit_3194_unbin2013-02-28T02%3A30%3A41.log','num_regions': 16,'reg_prefix': 'E:/Science/Xray/cirdanbackup/3194/new/ann_','reg_suffix': '_3194.reg'

cluster_params={'Name': 'Abell963','Redshift': 0.206,'nH': 1.39,'Obsid': 903,'Xspecfile': 'E:/Science/Xray/tolkienbackup/xspeclogs/unbin/witherror/xspec_tx_fit_903_unbin2013-03-01T17%3A22%3A22.log','num_regions': 35,'reg_prefix': 'E:/Science/Xray/cirdanbackup/903/new/ann_','reg_suffix': '_903.reg'}

cluster_params={'Name': 'MACSJ1115+01','Redshift': 0.355,'nH': 4.14,'Obsid': 9375,'Xspecfile': 'E:/Science/Xray/tolkienbackup/xspeclogs/unbin/witherror/xspec_tx_fit_9375_unbin2013-02-27T17%3A30%3A25.log','num_regions': 10,'reg_prefix': 'E:/Science/Xray/cirdanbackup/9375/new/ann_','reg_suffix': '_9375.reg'}

cluster_params={'Name': 'MACSJ1206-08','Redshift': 0.439,'nH': 4.15,'Obsid': 3277,'Xspecfile': 'E:/Science/Xray/tolkienbackup/xspeclogs/unbin/witherror/xspec_tx_fit_3277_unbin2013-02-28T02%3A45%3A13.log','num_regions': 6,'reg_prefix': 'E:/Science/Xray/tolkienbackup/3277/new/ann_','reg_suffix': '_3277.reg'}

cluster_params={'Name': 'MACSJ1311-03','Redshift': 0.494,'nH': 2.18,'Obsid': 6110,'Xspecfile': 'E:/Science/Xray/tolkienbackup/xspeclogs/unbin/witherror/xspec_tx_fit_6110_unbin2013-02-27T17%3A36%3A03.log','\'num_regions': 7,'reg_prefix': 'E:/Science/Xray/cirdanbackup/6110/new/ann_low_','reg_suffix': '_6110.reg'}

cluster_params={'Name': 'MACSJ1423+24','Redshift': 0.545,'nH': 2.65,'Obsid': 4195,'Xspecfile': 'E:/Science/Xray/tolkienbackup/xspeclogs/unbin/witherror/xspec_tx_fit_4195_unbin2013-02-28T04%3A17%3A34.log','num_regions': 11,'reg_prefix': 'E:/Science/Xray/cirdanbackup/4195/new/ann_','reg_suffix': '_4195.reg'}

cluster_params={'Name': 'MACSJ1532+30','Redshift': 0.363,'nH': 2.21,'Obsid': 1665,'Xspecfile': 'E:/Science/Xray/tolkienbackup/xspeclogs/unbin/witherror/xspec_tx_fit_1665_unbin2013-02-27T18%3A59%3A32.log','num_regions': 5,'reg_prefix': 'E:/Science/Xray/tolkienbackup/1665/new/annulus_low_','reg_suffix': '_1665.reg'}

cluster_params={'Name': 'MACSJ1720+35','Redshift': 0.387,'nH': 3.35,'Obsid': 6107,'Xspecfile': 'E:/Science/Xray/tolkienbackup/xspeclogs/unbin/witherror/xspec_tx_fit_6107_unbin2013-02-27T17%3A58%3A57.log','num_regions': 4,'reg_prefix': 'E:/Science/Xray/cirdanbackup/6107/new/ann_','reg_suffix': '_6107.reg'}

cluster_params={'Name': 'MACSJ1931-26','Redshift': 0.352,'nH': 9.31,'Obsid': 3282,'Xspecfile': 'E:/Science/Xray/tolkienbackup/xspeclogs/unbin/witherror/xspec_tx_fit_3282_unbin2013-02-28T02%3A50%3A50.log','num_regions': 5,'reg_prefix': 'E:/Science/Xray/cirdanbackup/3282/new/ann_','reg_suffix': '_9382.reg'}

cluster_params={'Name': 'MACSJ2129-07','Redshift': 0.57,'nH': 5,'Obsid': 3595,'Xspecfile': 'E:/Science/Xray/tolkienbackup/xspeclogs/unbin/witherror/xspec_tx_fit_3595_unbin2013-02-28T03%3A02%3A54.log','num_regions': 3,'reg_prefix': 'E:/Science/Xray/cirdanbackup/3595/new/ann_','reg_suffix': '_3595.reg'}

cluster_params={'Name': 'RXJ2129+0005','Redshift': 0.234,'nH': 4.3,'Obsid': 552,'Xspecfile': 'E:/Science/Xray/tolkienbackup/xspeclogs/unbin/witherror/xspec_tx_fit_552_unbin2013-02-28T12%3A03%3A07.log','num_regions': 15,'reg_prefix': 'E:/Science/Xray/tolkienbackup/552/new/ann_','reg_suffix': '_9370.reg'}

cluster_params={'Name': 'MS2137-2353','Redshift': 0.313,'nH': 3.4,'Obsid': 4974,'Xspecfile': 'E:/Science/Xray/tolkienbackup/xspeclogs/unbin/witherror/xspec_tx_fit_4974_unbin2013-02-27T18%3A38%3A44.log','num_regions': 7,'reg_prefix': 'E:/Science/Xray/tolkienbackup/4974/annulus','reg_suffix': '.reg'}

cluster_params={'Name': 'Abell209','Redshift': 0.206,'nH': 1.68,'Obsid': 522,Xspecfile': 'E:/Science/Xray/tolkienbackup/xspeclogs/unbin/witherror/xspec_tx_fit_522_unbin2013-03-01T11%3A05%3A46.log','num_regions': 4,'reg_prefix': 'E:/Science/Xray/cirdanbackup/522/new/ann_','reg_suffix': '_3579.reg'}

cluster_params={'Name': 'MACSJ1532+30','Redshift': 0.363,'nH': 2.21,'Obsid': 1649,'Xspecfile': 'E:/Science/Xray/tolkienbackup/xspeclogs/unbin/witherror/xspec_tx_fit_1649_unbin2013-02-27T18%3A52%3A52.log','num_regions': 5,'reg_prefix': 'E:/Science/Xray/tolkienbackup/1665/new/annulus_low_','reg_suffix': '_1665.reg'}

cluster_params={'Name': 'MACSJ1149+22','Redshift': 0.544,'nH': 2.32,'Obsid': 1656,'Xspecfile': 'E:/Science/Xray/tolkienbackup/xspeclogs/unbin/witherror/xspec_tx_fit_1656_unbin2013-02-27T18%3A54%3A23.log','num_regions': 3,'reg_prefix': 'E:/Science/Xray/cirdanbackup/1656/new/ann_low_','reg_suffix': '_3589.reg'}

cluster_params={'Name': 'MACSJ2129-07',Redshift': 0.57,'nH': 5,'Obsid': 3199,'Xspecfile': 'E:/Science/Xray/tolkienbackup/xspeclogs/unbin/witherror/xspec_tx_fit_3199_unbin2013-02-28T02%3A33%3A18.log','num_regions': 3,'reg_prefix': 'E:/Science/Xray/tolkienbackup/3199/new/ann_','reg_suffix': '_3595.reg'}

cluster_params={'Name': 'MS2137-2353','Redshift': 0.313,'nH': 3.4,'Obsid': 5250,'Xspecfile': 'E:/Science/Xray/tolkienbackup/xspeclogs/unbin/witherror/xspec_tx_fit_5250_unbin2013-03-01T11%3A35%3A44.log','num_regions': 7,'reg_prefix': 'E:/Science/Xray/cirdanbackup/5250/new/ann_','reg_suffix': '_4974.reg'}

cluster_params={'Name': 'MACSJ1311-03','Redshift': 0.494,'nH': 2.18,'Obsid': 9381,'Xspecfile': 'E:/Science/Xray/tolkienbackup/xspeclogs/unbin/witherror/xspec_tx_fit_9381_unbin2013-02-27T16%3A42%3A32.log','num_regions': 7,'reg_prefix': 'E:/Science/Xray/cirdanbackup/9381/new/ann_low_','reg_suffix': '_6110.reg'}

cluster_params={'Name': 'RXJ2248-4431','Redshift': 0.348,'nH': 1.77,'Obsid': 4966,'Xspecfile': '/home/Aaron/Xray/inputs/4966/xspec_tx_fit_4966_ubin_segfault.log','num_regions': 18,'reg_prefix': '/home/Aaron/Xray/inputs/4966/annulus','reg_suffix': '.reg'}

cluster_params={'Name': 'Abell2261','Redshift': 0.224,'nH': 3.31,'Obsid': 5007,'Xspecfile': '/home/Aaron/Xray/inputs/5007/xspec_tx_fit_5007_unbin2013-04-12T18:17:37.log','num_regions': 14,'reg_prefix': '/home/Aaron/Xray/inputs/5007/annulus','reg_suffix': '.reg'}

cluster_params={'Name': 'MACSJ1149+22','Redshift': 0.544,'nH': 2.32,'Obsid': 3589,'Xspecfile': '/home/Aaron/Xray/3589/xspec_tx_fit_3589_unbin2013-04-12T19:21:46.log','num_regions': 3,'reg_prefix': '/home/Aaron/Xray/3589/annulus_low','reg_suffix': '.reg'}

cluster_params={'Name': 'Abell209' ,'Redshift': 0.206 ,'nH': 1.68 ,'Obsid': 3579 ,'Xspecfile': '/home/Aaron/Xray/inputs/3579/xspec_tx_fit_3579_unbin2013-04-12T19:08:46.log' ,'num_regions': 4 ,'reg_prefix': '/home/Aaron/Xray/inputs/3579/annulus' ,'reg_suffix': '.reg'}

cluster_params={'Name': 'A383','Redshift': 0.187,'nH': 4.07,'Obsid': 9999,'Xspecfile': '/home/Aaron/Xray/inputs/A383/xspec_tx_fit_a383_unbin2013-02-26T14%3A33%3A14.log','num_regions': 14,'reg_prefix': '/home/Aaron/Xray/inputs/A383/annulus','reg_suffix': '.reg'}

cluster_params={'Name': 'MACS0647','Redshift': 0.584,'nH': 5.18,'Obsid': 10000,'Xspecfile': '/home/Aaron/Xray/inputs/MACS0647/xspec_tx_fit_macs0647_unbin2013-03-04T12:42:36.log','num_regions': 3,'reg_prefix': '/home/Aaron/Xray/inputs/MACS0647/annulus','reg_suffix': '.reg'}

cluster_params={'Name': 'MACS1149','Redshift': 0.544,'nH': 2.32,'Obsid': 10001,'Xspecfile': '/home/Aaron/Xray/inputs/MACS1149/xspec_tx_fit_macs1149_unbin2013-03-04T12:53:04.log','num_regions': 3,'reg_prefix': '/home/Aaron/Xray/MACS1149/annulus' ,'reg_suffix':'.reg'}

cluster_params={'Name': 'MACS2129','Redshift': 0.57,'nH': 5,'Obsid': 10002,'Xspecfile': '/home/Aaron/Xray/inputs/MACS2129/xspec_tx_fit_macs2129_unbin2013-03-04T12:47:44.log','num_regions': 3,'reg_prefix': '/home/Aaron/Xray/inputs/MACS2129/annulus','reg_suffix': '.reg'}

cluster_params={'Name': 'MS2137','Redshift': 0.313,'nH': 3.4,'Obsid': 10003,'Xspecfile': '/home/Aaron/Xray/inputs/MS2137/xspec_tx_fit_ms2137_unbin2013-02-26T19:15:37.log','num_regions': 7,'reg_prefix': '/home/Aaron/Xray/inputs/MS2137/annulus','reg_suffix': '.reg'}

cluster_params={'Name': 'CLJ1226','Redshift': 0.89,'nH': 1.37,'Obsid': 10004,'Xspecfile': '/home/Aaron/Xray/inputs/CLJ1226/xspec_tx_fit_clj1226_unbin2013-04-12T20:30:27.log','num_regions': 3,'reg_prefix': '/home/Aaron/Xray/inputs/CLJ1226/ann','reg_suffix': '_3180.reg'}












